Download current country-level World Bank data — download_wbank_data • tidycovid19
…
    Value

    If var_def = FALSE, a data frame containing the
    data and a timestamp variable indicating the time of data
    retrieval. Otherwise, a list including the data frame with the
    data followed by a data frame containing the variable definitions.

    Examples

df <- download_wbank_data(silent = TRUE, cached = TRUE)
df %>%
  dplyr::select(country, population) %>%
  dplyr::arrange(-population)
#> # A tibble: 217 x 2
#>    country            population
#>    <chr>                   <dbl>
#>  1 China              1392730000
#>  2 India              1352617328
#>  3 United States       327167434
#>  4 Indonesia           267663435
#>  5 Pakistan            212215030
#>  6 Brazil              209469333
#>  7 Nigeria             195874740
#>  8 Bangladesh          161356039
#>  9 Russian Federation  144478050
#> 10 Japan               126529100
#> # … with 207 more rows
…
